digraph G {
  subgraph cluster_I2 {
    2;
    label = "SCC#2";
    style = filled;
    color = lightgrey;
  }
  subgraph cluster_I1 {
    1;
    3;
    4;
    5;
    6;
    7;
    label = "SCC#1";
    style = filled;
    color = lightgrey;
  }
  1 -> 2;
  1 -> 3;
  3 -> 1;
  3 -> 4;
  3 -> 6;
  3 -> 7;
  4 -> 5;
  5 -> 4;
  5 -> 2;
  5 -> 1;
  5 -> 7;
  6 -> 5;
  6 -> 7;
  7 -> 6;
  7 -> 5;
  rankdir=LR;
}
