%!PS-Adobe-3.0 EPSF-3.0
%%Creator: graphviz version 2.26.3 (20100126.1600)
%%Title: G
%%Pages: 1
%%BoundingBox: 36 36 367 356
%%EndComments
save
%%BeginProlog
/DotDict 200 dict def
DotDict begin

/setupLatin1 {
mark
/EncodingVector 256 array def
 EncodingVector 0

ISOLatin1Encoding 0 255 getinterval putinterval
EncodingVector 45 /hyphen put

% Set up ISO Latin 1 character encoding
/starnetISO {
        dup dup findfont dup length dict begin
        { 1 index /FID ne { def }{ pop pop } ifelse
        } forall
        /Encoding EncodingVector def
        currentdict end definefont
} def
/Times-Roman starnetISO def
/Times-Italic starnetISO def
/Times-Bold starnetISO def
/Times-BoldItalic starnetISO def
/Helvetica starnetISO def
/Helvetica-Oblique starnetISO def
/Helvetica-Bold starnetISO def
/Helvetica-BoldOblique starnetISO def
/Courier starnetISO def
/Courier-Oblique starnetISO def
/Courier-Bold starnetISO def
/Courier-BoldOblique starnetISO def
cleartomark
} bind def

%%BeginResource: procset graphviz 0 0
/coord-font-family /Times-Roman def
/default-font-family /Times-Roman def
/coordfont coord-font-family findfont 8 scalefont def

/InvScaleFactor 1.0 def
/set_scale {
       dup 1 exch div /InvScaleFactor exch def
       scale
} bind def

% styles
/solid { [] 0 setdash } bind def
/dashed { [9 InvScaleFactor mul dup ] 0 setdash } bind def
/dotted { [1 InvScaleFactor mul 6 InvScaleFactor mul] 0 setdash } bind def
/invis {/fill {newpath} def /stroke {newpath} def /show {pop newpath} def} bind def
/bold { 2 setlinewidth } bind def
/filled { } bind def
/unfilled { } bind def
/rounded { } bind def
/diagonals { } bind def

% hooks for setting color 
/nodecolor { sethsbcolor } bind def
/edgecolor { sethsbcolor } bind def
/graphcolor { sethsbcolor } bind def
/nopcolor {pop pop pop} bind def

/beginpage {	% i j npages
	/npages exch def
	/j exch def
	/i exch def
	/str 10 string def
	npages 1 gt {
		gsave
			coordfont setfont
			0 0 moveto
			(\() show i str cvs show (,) show j str cvs show (\)) show
		grestore
	} if
} bind def

/set_font {
	findfont exch
	scalefont setfont
} def

% draw text fitted to its expected width
/alignedtext {			% width text
	/text exch def
	/width exch def
	gsave
		width 0 gt {
			[] 0 setdash
			text stringwidth pop width exch sub text length div 0 text ashow
		} if
	grestore
} def

/boxprim {				% xcorner ycorner xsize ysize
		4 2 roll
		moveto
		2 copy
		exch 0 rlineto
		0 exch rlineto
		pop neg 0 rlineto
		closepath
} bind def

/ellipse_path {
	/ry exch def
	/rx exch def
	/y exch def
	/x exch def
	matrix currentmatrix
	newpath
	x y translate
	rx ry scale
	0 0 1 0 360 arc
	setmatrix
} bind def

/endpage { showpage } bind def
/showpage { } def

/layercolorseq
	[	% layer color sequence - darkest to lightest
		[0 0 0]
		[.2 .8 .8]
		[.4 .8 .8]
		[.6 .8 .8]
		[.8 .8 .8]
	]
def

/layerlen layercolorseq length def

/setlayer {/maxlayer exch def /curlayer exch def
	layercolorseq curlayer 1 sub layerlen mod get
	aload pop sethsbcolor
	/nodecolor {nopcolor} def
	/edgecolor {nopcolor} def
	/graphcolor {nopcolor} def
} bind def

/onlayer { curlayer ne {invis} if } def

/onlayers {
	/myupper exch def
	/mylower exch def
	curlayer mylower lt
	curlayer myupper gt
	or
	{invis} if
} def

/curlayer 0 def

%%EndResource
%%EndProlog
%%BeginSetup
14 default-font-family set_font
1 setmiterlimit
% /arrowlength 10 def
% /arrowwidth 5 def

% make sure pdfmark is harmless for PS-interpreters other than Distiller
/pdfmark where {pop} {userdict /pdfmark /cleartomark load put} ifelse
% make '<<' and '>>' safe on PS Level 1 devices
/languagelevel where {pop languagelevel}{1} ifelse
2 lt {
    userdict (<<) cvn ([) cvn load put
    userdict (>>) cvn ([) cvn load put
} if

%%EndSetup
setupLatin1
%%Page: 1 1
%%PageBoundingBox: 36 36 367 356
%%PageOrientation: Portrait
0 0 1 beginpage
gsave
36 36 331 320 boxprim clip newpath
1 1 set_scale 0 rotate 40 41 translate
% 1
gsave
1 setlinewidth
0 0 0 nodecolor
242 46.11 27 18 ellipse_path stroke
0 0 0 nodecolor
14 /Times-Roman set_font
237 42.01 moveto 10 (1) alignedtext
grestore
% 2
gsave
1 setlinewidth
0 0 0 nodecolor
123.24 19 27 18 ellipse_path stroke
0 0 0 nodecolor
14 /Times-Roman set_font
118.24 14.9 moveto 10 (2) alignedtext
grestore
% 1->2
gsave
1 setlinewidth
0 0 0 edgecolor
newpath 216.23 40.22 moveto
199.42 36.39 177.26 31.33 158.78 27.11 curveto
stroke
0 0 0 edgecolor
newpath 159.48 23.68 moveto
148.96 24.87 lineto
157.93 30.51 lineto
closepath fill
1 setlinewidth
solid
0 0 0 edgecolor
newpath 159.48 23.68 moveto
148.96 24.87 lineto
157.93 30.51 lineto
closepath stroke
grestore
% 3
gsave
1 setlinewidth
0 0 0 nodecolor
294.85 155.86 27 18 ellipse_path stroke
0 0 0 nodecolor
14 /Times-Roman set_font
289.85 151.76 moveto 10 (3) alignedtext
grestore
% 1->3
gsave
1 setlinewidth
0 0 0 edgecolor
newpath 245.33 64.45 moveto
251.93 82.8 265.19 111.07 276.47 131.33 curveto
stroke
0 0 0 edgecolor
newpath 273.45 133.1 moveto
281.49 140.01 lineto
279.51 129.6 lineto
closepath fill
1 setlinewidth
solid
0 0 0 edgecolor
newpath 273.45 133.1 moveto
281.49 140.01 lineto
279.51 129.6 lineto
closepath stroke
grestore
% 2->3
gsave
1 setlinewidth
0 1 1 edgecolor
newpath 140.64 32.88 moveto
171.09 57.16 234.15 107.45 269.47 135.62 curveto
stroke
0 1 1 edgecolor
newpath 267.4 138.44 moveto
277.4 141.94 lineto
271.77 132.97 lineto
closepath fill
1 setlinewidth
solid
0 1 1 edgecolor
newpath 267.4 138.44 moveto
277.4 141.94 lineto
271.77 132.97 lineto
closepath stroke
grestore
% 3->1
gsave
1 setlinewidth
0 0 0 edgecolor
newpath 291.51 137.51 moveto
284.91 119.16 271.65 90.89 260.37 70.63 curveto
stroke
0 0 0 edgecolor
newpath 263.39 68.86 moveto
255.36 61.95 lineto
257.33 72.36 lineto
closepath fill
1 setlinewidth
solid
0 0 0 edgecolor
newpath 263.39 68.86 moveto
255.36 61.95 lineto
257.33 72.36 lineto
closepath stroke
grestore
% 4
gsave
1 setlinewidth
0 0 0 nodecolor
28 94.95 27 18 ellipse_path stroke
0 0 0 nodecolor
14 /Times-Roman set_font
23 90.85 moveto 10 (4) alignedtext
grestore
% 3->4
gsave
1 setlinewidth
0 0 0 edgecolor
newpath 269.26 150.02 moveto
221.47 139.11 118.53 115.61 63.85 103.13 curveto
stroke
0 0 0 edgecolor
newpath 64.43 99.67 moveto
53.9 100.86 lineto
62.87 106.5 lineto
closepath fill
1 setlinewidth
solid
0 0 0 edgecolor
newpath 64.43 99.67 moveto
53.9 100.86 lineto
62.87 106.5 lineto
closepath stroke
grestore
% 6
gsave
1 setlinewidth
0 0 0 nodecolor
242 265.6 27 18 ellipse_path stroke
0 0 0 nodecolor
14 /Times-Roman set_font
237 261.5 moveto 10 (6) alignedtext
grestore
% 3->6
gsave
1 setlinewidth
0 0 0 edgecolor
newpath 286.59 173 moveto
278.07 190.7 264.66 218.54 254.77 239.08 curveto
stroke
0 0 0 edgecolor
newpath 251.56 237.69 moveto
250.37 248.21 lineto
257.86 240.72 lineto
closepath fill
1 setlinewidth
solid
0 0 0 edgecolor
newpath 251.56 237.69 moveto
250.37 248.21 lineto
257.86 240.72 lineto
closepath stroke
grestore
% 7
gsave
1 setlinewidth
0 0 0 nodecolor
123.24 292.71 27 18 ellipse_path stroke
0 0 0 nodecolor
14 /Times-Roman set_font
118.24 288.61 moveto 10 (7) alignedtext
grestore
% 3->7
gsave
1 setlinewidth
0 0 0 edgecolor
newpath 277.45 169.73 moveto
247 194.01 183.93 244.31 148.61 272.48 curveto
stroke
0 0 0 edgecolor
newpath 146.32 269.83 moveto
140.68 278.8 lineto
150.68 275.3 lineto
closepath fill
1 setlinewidth
solid
0 0 0 edgecolor
newpath 146.32 269.83 moveto
140.68 278.8 lineto
150.68 275.3 lineto
closepath stroke
grestore
% 5
gsave
1 setlinewidth
0 1 1 nodecolor
28 216.76 27 18 ellipse_path stroke
0 1 1 nodecolor
14 /Times-Roman set_font
23 212.66 moveto 10 (5) alignedtext
grestore
% 4->5
gsave
1 setlinewidth
0 0 0 edgecolor
newpath 23.07 112.66 moveto
20.97 132.69 20.69 165.55 22.23 189 curveto
stroke
0 0 0 edgecolor
newpath 18.75 189.35 moveto
23.07 199.03 lineto
25.72 188.77 lineto
closepath fill
1 setlinewidth
solid
0 0 0 edgecolor
newpath 18.75 189.35 moveto
23.07 199.03 lineto
25.72 188.77 lineto
closepath stroke
grestore
% 5->1
gsave
1 setlinewidth
0 0 0 edgecolor
newpath 45.51 202.8 moveto
83.3 172.66 172.64 101.41 216.63 66.34 curveto
stroke
0 0 0 edgecolor
newpath 218.91 69 moveto
224.54 60.02 lineto
214.54 63.52 lineto
closepath fill
1 setlinewidth
solid
0 0 0 edgecolor
newpath 218.91 69 moveto
224.54 60.02 lineto
214.54 63.52 lineto
closepath stroke
grestore
% 5->2
gsave
1 setlinewidth
0 0 0 edgecolor
newpath 36.29 199.56 moveto
52.96 164.93 90.67 86.63 110.5 45.45 curveto
stroke
0 0 0 edgecolor
newpath 113.72 46.83 moveto
114.9 36.31 lineto
107.41 43.8 lineto
closepath fill
1 setlinewidth
solid
0 0 0 edgecolor
newpath 113.72 46.83 moveto
114.9 36.31 lineto
107.41 43.8 lineto
closepath stroke
grestore
% 5->4
gsave
1 setlinewidth
0 0 0 edgecolor
newpath 32.93 199.05 moveto
35.03 179.02 35.31 146.16 33.77 122.71 curveto
stroke
0 0 0 edgecolor
newpath 37.25 122.36 moveto
32.93 112.68 lineto
30.28 122.94 lineto
closepath fill
1 setlinewidth
solid
0 0 0 edgecolor
newpath 37.25 122.36 moveto
32.93 112.68 lineto
30.28 122.94 lineto
closepath stroke
grestore
% 5->7
gsave
1 setlinewidth
0 0 0 edgecolor
newpath 40.11 232.96 moveto
53.38 245.8 74.97 263.45 92.86 276.32 curveto
stroke
0 0 0 edgecolor
newpath 91.09 279.35 moveto
101.29 282.21 lineto
95.1 273.62 lineto
closepath fill
1 setlinewidth
solid
0 0 0 edgecolor
newpath 91.09 279.35 moveto
101.29 282.21 lineto
95.1 273.62 lineto
closepath stroke
grestore
% 6->5
gsave
1 setlinewidth
0 0 0 edgecolor
newpath 216.18 259.71 moveto
178 251 106.36 234.65 63.34 224.83 curveto
stroke
0 0 0 edgecolor
newpath 64.1 221.41 moveto
53.57 222.6 lineto
62.54 228.24 lineto
closepath fill
1 setlinewidth
solid
0 0 0 edgecolor
newpath 64.1 221.41 moveto
53.57 222.6 lineto
62.54 228.24 lineto
closepath stroke
grestore
% 6->7
gsave
1 setlinewidth
0 0 0 edgecolor
newpath 214.96 265.95 moveto
197.19 268.72 173.85 273.89 155.16 279.13 curveto
stroke
0 0 0 edgecolor
newpath 153.92 275.85 moveto
145.32 282.04 lineto
155.9 282.56 lineto
closepath fill
1 setlinewidth
solid
0 0 0 edgecolor
newpath 153.92 275.85 moveto
145.32 282.04 lineto
155.9 282.56 lineto
closepath stroke
grestore
% 7->5
gsave
1 setlinewidth
0 0 0 edgecolor
newpath 111.12 276.51 moveto
97.86 263.67 76.26 246.02 58.37 233.15 curveto
stroke
0 0 0 edgecolor
newpath 60.15 230.12 moveto
49.94 227.26 lineto
56.14 235.86 lineto
closepath fill
1 setlinewidth
solid
0 0 0 edgecolor
newpath 60.15 230.12 moveto
49.94 227.26 lineto
56.14 235.86 lineto
closepath stroke
grestore
% 7->6
gsave
1 setlinewidth
0 0 0 edgecolor
newpath 150.27 292.36 moveto
168.05 289.6 191.38 284.42 210.07 279.18 curveto
stroke
0 0 0 edgecolor
newpath 211.31 282.47 moveto
219.91 276.28 lineto
209.33 275.75 lineto
closepath fill
1 setlinewidth
solid
0 0 0 edgecolor
newpath 211.31 282.47 moveto
219.91 276.28 lineto
209.33 275.75 lineto
closepath stroke
grestore
endpage
showpage
grestore
%%PageTrailer
%%EndPage: 1
%%Trailer
end
restore
%%EOF
