%!PS-Adobe-2.0 EPSF-2.0
%%Title: /home/josch/master_thesis/build_graph.dia
%%Creator: Dia v0.97.2
%%CreationDate: Sun Jan 27 13:21:24 2013
%%For: josch
%%Orientation: Portrait
%%Magnification: 1.0000
%%BoundingBox: 0 0 786 343
%%BeginSetup
%%EndSetup
%%EndComments
%%BeginProlog
[ /.notdef /.notdef /.notdef /.notdef /.notdef /.notdef /.notdef /.notdef /.notdef /.notdef
/.notdef /.notdef /.notdef /.notdef /.notdef /.notdef /.notdef /.notdef /.notdef /.notdef
/.notdef /.notdef /.notdef /.notdef /.notdef /.notdef /.notdef /.notdef /.notdef /.notdef
/.notdef /.notdef /space /exclam /quotedbl /numbersign /dollar /percent /ampersand /quoteright
/parenleft /parenright /asterisk /plus /comma /hyphen /period /slash /zero /one
/two /three /four /five /six /seven /eight /nine /colon /semicolon
/less /equal /greater /question /at /A /B /C /D /E
/F /G /H /I /J /K /L /M /N /O
/P /Q /R /S /T /U /V /W /X /Y
/Z /bracketleft /backslash /bracketright /asciicircum /underscore /quoteleft /a /b /c
/d /e /f /g /h /i /j /k /l /m
/n /o /p /q /r /s /t /u /v /w
/x /y /z /braceleft /bar /braceright /asciitilde /.notdef /.notdef /.notdef
/.notdef /.notdef /.notdef /.notdef /.notdef /.notdef /.notdef /.notdef /.notdef /.notdef
/.notdef /.notdef /.notdef /.notdef /.notdef /.notdef /.notdef /.notdef /.notdef /.notdef
/.notdef /.notdef /.notdef /.notdef /.notdef /.notdef /.notdef /.notdef /.notdef /.notdef
/space /exclamdown /cent /sterling /currency /yen /brokenbar /section /dieresis /copyright
/ordfeminine /guillemotleft /logicalnot /hyphen /registered /macron /degree /plusminus /twosuperior /threesuperior
/acute /mu /paragraph /periodcentered /cedilla /onesuperior /ordmasculine /guillemotright /onequarter /onehalf
/threequarters /questiondown /Agrave /Aacute /Acircumflex /Atilde /Adieresis /Aring /AE /Ccedilla
/Egrave /Eacute /Ecircumflex /Edieresis /Igrave /Iacute /Icircumflex /Idieresis /Eth /Ntilde
/Ograve /Oacute /Ocircumflex /Otilde /Odieresis /multiply /Oslash /Ugrave /Uacute /Ucircumflex
/Udieresis /Yacute /Thorn /germandbls /agrave /aacute /acircumflex /atilde /adieresis /aring
/ae /ccedilla /egrave /eacute /ecircumflex /edieresis /igrave /iacute /icircumflex /idieresis
/eth /ntilde /ograve /oacute /ocircumflex /otilde /odieresis /divide /oslash /ugrave
/uacute /ucircumflex /udieresis /yacute /thorn /ydieresis] /isolatin1encoding exch def
/cp {closepath} bind def
/c {curveto} bind def
/f {fill} bind def
/a {arc} bind def
/ef {eofill} bind def
/ex {exch} bind def
/gr {grestore} bind def
/gs {gsave} bind def
/sa {save} bind def
/rs {restore} bind def
/l {lineto} bind def
/m {moveto} bind def
/rm {rmoveto} bind def
/n {newpath} bind def
/s {stroke} bind def
/sh {show} bind def
/slc {setlinecap} bind def
/slj {setlinejoin} bind def
/slw {setlinewidth} bind def
/srgb {setrgbcolor} bind def
/rot {rotate} bind def
/sc {scale} bind def
/sd {setdash} bind def
/ff {findfont} bind def
/sf {setfont} bind def
/scf {scalefont} bind def
/sw {stringwidth pop} bind def
/tr {translate} bind def

/ellipsedict 8 dict def
ellipsedict /mtrx matrix put
/ellipse
{ ellipsedict begin
   /endangle exch def
   /startangle exch def
   /yrad exch def
   /xrad exch def
   /y exch def
   /x exch def   /savematrix mtrx currentmatrix def
   x y tr xrad yrad sc
   0 0 1 startangle endangle arc
   savematrix setmatrix
   end
} def

/mergeprocs {
dup length
3 -1 roll
dup
length
dup
5 1 roll
3 -1 roll
add
array cvx
dup
3 -1 roll
0 exch
putinterval
dup
4 2 roll
putinterval
} bind def
/Times-Roman-latin1
    /Times-Roman findfont
    dup length dict begin
	{1 index /FID ne {def} {pop pop} ifelse} forall
	/Encoding isolatin1encoding def
    currentdict end
definefont pop
/Times-Italic-latin1
    /Times-Italic findfont
    dup length dict begin
	{1 index /FID ne {def} {pop pop} ifelse} forall
	/Encoding isolatin1encoding def
    currentdict end
definefont pop
/Times-Bold-latin1
    /Times-Bold findfont
    dup length dict begin
	{1 index /FID ne {def} {pop pop} ifelse} forall
	/Encoding isolatin1encoding def
    currentdict end
definefont pop
/Times-BoldItalic-latin1
    /Times-BoldItalic findfont
    dup length dict begin
	{1 index /FID ne {def} {pop pop} ifelse} forall
	/Encoding isolatin1encoding def
    currentdict end
definefont pop
/AvantGarde-Gothic-latin1
    /AvantGarde-Gothic findfont
    dup length dict begin
	{1 index /FID ne {def} {pop pop} ifelse} forall
	/Encoding isolatin1encoding def
    currentdict end
definefont pop
/AvantGarde-BookOblique-latin1
    /AvantGarde-BookOblique findfont
    dup length dict begin
	{1 index /FID ne {def} {pop pop} ifelse} forall
	/Encoding isolatin1encoding def
    currentdict end
definefont pop
/AvantGarde-Demi-latin1
    /AvantGarde-Demi findfont
    dup length dict begin
	{1 index /FID ne {def} {pop pop} ifelse} forall
	/Encoding isolatin1encoding def
    currentdict end
definefont pop
/AvantGarde-DemiOblique-latin1
    /AvantGarde-DemiOblique findfont
    dup length dict begin
	{1 index /FID ne {def} {pop pop} ifelse} forall
	/Encoding isolatin1encoding def
    currentdict end
definefont pop
/Bookman-Light-latin1
    /Bookman-Light findfont
    dup length dict begin
	{1 index /FID ne {def} {pop pop} ifelse} forall
	/Encoding isolatin1encoding def
    currentdict end
definefont pop
/Bookman-LightItalic-latin1
    /Bookman-LightItalic findfont
    dup length dict begin
	{1 index /FID ne {def} {pop pop} ifelse} forall
	/Encoding isolatin1encoding def
    currentdict end
definefont pop
/Bookman-Demi-latin1
    /Bookman-Demi findfont
    dup length dict begin
	{1 index /FID ne {def} {pop pop} ifelse} forall
	/Encoding isolatin1encoding def
    currentdict end
definefont pop
/Bookman-DemiItalic-latin1
    /Bookman-DemiItalic findfont
    dup length dict begin
	{1 index /FID ne {def} {pop pop} ifelse} forall
	/Encoding isolatin1encoding def
    currentdict end
definefont pop
/Courier-latin1
    /Courier findfont
    dup length dict begin
	{1 index /FID ne {def} {pop pop} ifelse} forall
	/Encoding isolatin1encoding def
    currentdict end
definefont pop
/Courier-Oblique-latin1
    /Courier-Oblique findfont
    dup length dict begin
	{1 index /FID ne {def} {pop pop} ifelse} forall
	/Encoding isolatin1encoding def
    currentdict end
definefont pop
/Courier-Bold-latin1
    /Courier-Bold findfont
    dup length dict begin
	{1 index /FID ne {def} {pop pop} ifelse} forall
	/Encoding isolatin1encoding def
    currentdict end
definefont pop
/Courier-BoldOblique-latin1
    /Courier-BoldOblique findfont
    dup length dict begin
	{1 index /FID ne {def} {pop pop} ifelse} forall
	/Encoding isolatin1encoding def
    currentdict end
definefont pop
/Helvetica-latin1
    /Helvetica findfont
    dup length dict begin
	{1 index /FID ne {def} {pop pop} ifelse} forall
	/Encoding isolatin1encoding def
    currentdict end
definefont pop
/Helvetica-Oblique-latin1
    /Helvetica-Oblique findfont
    dup length dict begin
	{1 index /FID ne {def} {pop pop} ifelse} forall
	/Encoding isolatin1encoding def
    currentdict end
definefont pop
/Helvetica-Bold-latin1
    /Helvetica-Bold findfont
    dup length dict begin
	{1 index /FID ne {def} {pop pop} ifelse} forall
	/Encoding isolatin1encoding def
    currentdict end
definefont pop
/Helvetica-BoldOblique-latin1
    /Helvetica-BoldOblique findfont
    dup length dict begin
	{1 index /FID ne {def} {pop pop} ifelse} forall
	/Encoding isolatin1encoding def
    currentdict end
definefont pop
/Helvetica-Narrow-latin1
    /Helvetica-Narrow findfont
    dup length dict begin
	{1 index /FID ne {def} {pop pop} ifelse} forall
	/Encoding isolatin1encoding def
    currentdict end
definefont pop
/Helvetica-Narrow-Oblique-latin1
    /Helvetica-Narrow-Oblique findfont
    dup length dict begin
	{1 index /FID ne {def} {pop pop} ifelse} forall
	/Encoding isolatin1encoding def
    currentdict end
definefont pop
/Helvetica-Narrow-Bold-latin1
    /Helvetica-Narrow-Bold findfont
    dup length dict begin
	{1 index /FID ne {def} {pop pop} ifelse} forall
	/Encoding isolatin1encoding def
    currentdict end
definefont pop
/Helvetica-Narrow-BoldOblique-latin1
    /Helvetica-Narrow-BoldOblique findfont
    dup length dict begin
	{1 index /FID ne {def} {pop pop} ifelse} forall
	/Encoding isolatin1encoding def
    currentdict end
definefont pop
/NewCenturySchlbk-Roman-latin1
    /NewCenturySchlbk-Roman findfont
    dup length dict begin
	{1 index /FID ne {def} {pop pop} ifelse} forall
	/Encoding isolatin1encoding def
    currentdict end
definefont pop
/NewCenturySchlbk-Italic-latin1
    /NewCenturySchlbk-Italic findfont
    dup length dict begin
	{1 index /FID ne {def} {pop pop} ifelse} forall
	/Encoding isolatin1encoding def
    currentdict end
definefont pop
/NewCenturySchlbk-Bold-latin1
    /NewCenturySchlbk-Bold findfont
    dup length dict begin
	{1 index /FID ne {def} {pop pop} ifelse} forall
	/Encoding isolatin1encoding def
    currentdict end
definefont pop
/NewCenturySchlbk-BoldItalic-latin1
    /NewCenturySchlbk-BoldItalic findfont
    dup length dict begin
	{1 index /FID ne {def} {pop pop} ifelse} forall
	/Encoding isolatin1encoding def
    currentdict end
definefont pop
/Palatino-Roman-latin1
    /Palatino-Roman findfont
    dup length dict begin
	{1 index /FID ne {def} {pop pop} ifelse} forall
	/Encoding isolatin1encoding def
    currentdict end
definefont pop
/Palatino-Italic-latin1
    /Palatino-Italic findfont
    dup length dict begin
	{1 index /FID ne {def} {pop pop} ifelse} forall
	/Encoding isolatin1encoding def
    currentdict end
definefont pop
/Palatino-Bold-latin1
    /Palatino-Bold findfont
    dup length dict begin
	{1 index /FID ne {def} {pop pop} ifelse} forall
	/Encoding isolatin1encoding def
    currentdict end
definefont pop
/Palatino-BoldItalic-latin1
    /Palatino-BoldItalic findfont
    dup length dict begin
	{1 index /FID ne {def} {pop pop} ifelse} forall
	/Encoding isolatin1encoding def
    currentdict end
definefont pop
/Symbol-latin1
    /Symbol findfont
definefont pop
/ZapfChancery-MediumItalic-latin1
    /ZapfChancery-MediumItalic findfont
    dup length dict begin
	{1 index /FID ne {def} {pop pop} ifelse} forall
	/Encoding isolatin1encoding def
    currentdict end
definefont pop
/ZapfDingbats-latin1
    /ZapfDingbats findfont
    dup length dict begin
	{1 index /FID ne {def} {pop pop} ifelse} forall
	/Encoding isolatin1encoding def
    currentdict end
definefont pop
28.346000 -28.346000 scale
-3.533458 -16.750229 translate
%%EndProlog


1.000000 1.000000 1.000000 srgb
n 6.397500 10.000000 m 6.397500 11.900000 l 11.902500 11.900000 l 11.902500 10.000000 l f
0.100000 slw
[] 0 sd
[] 0 sd
0 slj
0.000000 0.000000 0.000000 srgb
n 6.397500 10.000000 m 6.397500 11.900000 l 11.902500 11.900000 l 11.902500 10.000000 l cp s
/Helvetica-latin1 ff 0.560000 scf sf
(src:python2.7) dup sw 2 div 9.150000 ex sub 10.995000 m
 gs 1 -1 sc sh gr
1.000000 1.000000 1.000000 srgb
n 5.450000 15.250000 1.866542 0.933271 0 360 ellipse f
0.100000 slw
[] 0 sd
[] 0 sd
0 slj
0.000000 0.000000 0.000000 srgb
n 5.450000 15.250000 1.866542 0.933271 0 360 ellipse cp s
(gdb) dup sw 2 div 5.450000 ex sub 15.295000 m
 gs 1 -1 sc sh gr
0.100000 slw
[0.200000] 0 sd
[0.200000] 0 sd
0 slc
n 4.629907 10.802478 4.522500 4.522500 14.699526 52.537071 ellipse s
[] 0 sd
0 slj
0 slc
n 7.076242 14.607862 m 7.373432 14.134388 l 7.396598 14.412935 l 7.633335 14.561530 l ef
n 7.076242 14.607862 m 7.373432 14.134388 l 7.396598 14.412935 l 7.633335 14.561530 l cp s
0.100000 slw
[] 0 sd
[] 0 sd
0 slc
n 9.970093 15.397522 4.522500 4.522500 194.434007 223.594791 ellipse s
[] 0 sd
0 slj
0 slc
n 6.961986 12.018647 m 6.742004 12.532562 l 6.675822 12.261001 l 6.418865 12.151010 l ef
n 6.961986 12.018647 m 6.742004 12.532562 l 6.675822 12.261001 l 6.418865 12.151010 l cp s
1.000000 1.000000 1.000000 srgb
n 17.500000 9.250000 2.471538 1.235769 0 360 ellipse f
0.100000 slw
[] 0 sd
[] 0 sd
0 slj
0.000000 0.000000 0.000000 srgb
n 17.500000 9.250000 2.471538 1.235769 0 360 ellipse cp s
(tk8.5-dev) dup sw 2 div 17.500000 ex sub 9.295000 m
 gs 1 -1 sc sh gr
0.100000 slw
[0.200000] 0 sd
[0.200000] 0 sd
0 slc
n 11.952020 10.379529 m 14.685757 9.822960 l s
[] 0 sd
0 slj
0 slc
n 15.053219 9.748147 m 14.613145 10.092872 l 14.685757 9.822960 l 14.513395 9.602923 l ef
n 15.053219 9.748147 m 14.613145 10.092872 l 14.685757 9.822960 l 14.513395 9.602923 l cp s
1.000000 1.000000 1.000000 srgb
n 23.080000 11.600000 m 23.080000 13.500000 l 27.220000 13.500000 l 27.220000 11.600000 l f
0.100000 slw
[] 0 sd
[] 0 sd
0 slj
0.000000 0.000000 0.000000 srgb
n 23.080000 11.600000 m 23.080000 13.500000 l 27.220000 13.500000 l 27.220000 11.600000 l cp s
(src:libxcb) dup sw 2 div 25.150000 ex sub 12.595000 m
 gs 1 -1 sc sh gr
1.000000 1.000000 1.000000 srgb
n 16.800000 15.100000 3.200458 1.600229 0 360 ellipse f
0.100000 slw
[] 0 sd
[] 0 sd
0 slj
0.000000 0.000000 0.000000 srgb
n 16.800000 15.100000 3.200458 1.600229 0 360 ellipse cp s
(python-xcbgen) dup sw 2 div 16.800000 ex sub 15.145000 m
 gs 1 -1 sc sh gr
0.100000 slw
[] 0 sd
[] 0 sd
0 slc
n 19.417169 10.077014 m 22.582733 11.442551 l s
[] 0 sd
0 slj
0 slc
n 22.927062 11.591086 m 22.368934 11.622593 l 22.582733 11.442551 l 22.566979 11.163487 l ef
n 22.927062 11.591086 m 22.368934 11.622593 l 22.582733 11.442551 l 22.566979 11.163487 l cp s
0.100000 slw
[] 0 sd
[] 0 sd
0 slc
n 14.587738 13.899884 m 11.420358 12.181632 l s
[] 0 sd
0 slj
0 slc
n 11.090736 12.002818 m 11.649441 12.021489 l 11.420358 12.181632 l 11.411022 12.460985 l ef
n 11.090736 12.002818 m 11.649441 12.021489 l 11.420358 12.181632 l 11.411022 12.460985 l cp s
0.100000 slw
[0.200000] 0 sd
[0.200000] 0 sd
0 slc
n 23.046191 13.192480 m 20.044663 14.109115 l s
[] 0 sd
0 slj
0 slc
n 19.686015 14.218642 m 20.091194 13.833507 l 20.044663 14.109115 l 20.237231 14.311705 l ef
n 19.686015 14.218642 m 20.091194 13.833507 l 20.044663 14.109115 l 20.237231 14.311705 l cp s
1.000000 1.000000 1.000000 srgb
n 21.306250 4.700000 m 21.306250 6.600000 l 25.493750 6.600000 l 25.493750 4.700000 l f
0.100000 slw
[] 0 sd
[] 0 sd
0 slj
0.000000 0.000000 0.000000 srgb
n 21.306250 4.700000 m 21.306250 6.600000 l 25.493750 6.600000 l 25.493750 4.700000 l cp s
(src:libxau) dup sw 2 div 23.400000 ex sub 5.695000 m
 gs 1 -1 sc sh gr
0.100000 slw
[] 0 sd
[] 0 sd
0 slc
n 19.109320 8.268042 m 21.346677 6.902875 l s
[] 0 sd
0 slj
0 slc
n 21.666792 6.707551 m 21.370188 7.181393 l 21.346677 6.902875 l 21.109756 6.754573 l ef
n 21.666792 6.707551 m 21.370188 7.181393 l 21.346677 6.902875 l 21.109756 6.754573 l cp s
1.000000 1.000000 1.000000 srgb
n 5.468750 5.400000 m 5.468750 7.300000 l 12.231250 7.300000 l 12.231250 5.400000 l f
0.100000 slw
[] 0 sd
[] 0 sd
0 slj
0.000000 0.000000 0.000000 srgb
n 5.468750 5.400000 m 5.468750 7.300000 l 12.231250 7.300000 l 12.231250 5.400000 l cp s
(src:x11proto-core) dup sw 2 div 8.850000 ex sub 6.395000 m
 gs 1 -1 sc sh gr
0.100000 slw
[] 0 sd
[] 0 sd
0 slc
n 15.400327 8.546063 m 12.294495 7.504802 l s
[] 0 sd
0 slj
0 slc
n 11.938945 7.385600 m 12.492480 7.307502 l 12.294495 7.504802 l 12.333544 7.781569 l ef
n 11.938945 7.385600 m 12.492480 7.307502 l 12.294495 7.504802 l 12.333544 7.781569 l cp s
1.000000 1.000000 1.000000 srgb
n 27.307500 7.450000 m 27.307500 9.350000 l 31.192500 9.350000 l 31.192500 7.450000 l f
0.100000 slw
[] 0 sd
[] 0 sd
0 slj
0.000000 0.000000 0.000000 srgb
n 27.307500 7.450000 m 27.307500 9.350000 l 31.192500 9.350000 l 31.192500 7.450000 l cp s
(src:tk8.5) dup sw 2 div 29.250000 ex sub 8.445000 m
 gs 1 -1 sc sh gr
0.100000 slw
[] 0 sd
[] 0 sd
0 slc
n 19.996086 9.069432 m 26.771828 8.579272 l s
[] 0 sd
0 slj
0 slc
n 27.145850 8.552215 m 26.665192 8.837639 l 26.771828 8.579272 l 26.629116 8.338943 l ef
n 27.145850 8.552215 m 26.665192 8.837639 l 26.771828 8.579272 l 26.629116 8.338943 l cp s
showpage
